%YAML 1.1
%TAG !u! tag:unity3d.com,2011:
--- !u!74 &7400000
AnimationClip:
  m_ObjectHideFlags: 0
  m_CorrespondingSourceObject: {fileID: 0}
  m_PrefabInstance: {fileID: 0}
  m_PrefabAsset: {fileID: 0}
  m_Name: bomb_hold_down
  serializedVersion: 6
  m_Legacy: 0
  m_Compressed: 0
  m_UseHighQualityCurve: 1
  m_RotationCurves: []
  m_CompressedRotationCurves: []
  m_EulerCurves: []
  m_PositionCurves: []
  m_ScaleCurves: []
  m_FloatCurves: []
  m_PPtrCurves:
  - curve:
    - time: 0
      value: {fileID: 728885175555013623, guid: a3bc8123d6424753a308593041f45176, type: 3}
    - time: 0.05
      value: {fileID: -4423521660895949822, guid: a3bc8123d6424753a308593041f45176, type: 3}
    - time: 0.1
      value: {fileID: -7537344028346965966, guid: a3bc8123d6424753a308593041f45176, type: 3}
    - time: 0.15
      value: {fileID: 7988232121051218619, guid: a3bc8123d6424753a308593041f45176, type: 3}
    - time: 0.2
      value: {fileID: -7929112036564245726, guid: a3bc8123d6424753a308593041f45176, type: 3}
    - time: 0.25
      value: {fileID: 7685089780970744033, guid: a3bc8123d6424753a308593041f45176, type: 3}
    - time: 0.3
      value: {fileID: -1902863987432934309, guid: a3bc8123d6424753a308593041f45176, type: 3}
    - time: 0.35
      value: {fileID: 7037477289435499704, guid: a3bc8123d6424753a308593041f45176, type: 3}
    - time: 0.4
      value: {fileID: -4495353914786858197, guid: a3bc8123d6424753a308593041f45176, type: 3}
    - time: 0.45
      value: {fileID: -6315639042656723349, guid: a3bc8123d6424753a308593041f45176, type: 3}
    - time: 0.5
      value: {fileID: -2755164161798337511, guid: a3bc8123d6424753a308593041f45176, type: 3}
    - time: 0.55
      value: {fileID: -6814250108344641206, guid: a3bc8123d6424753a308593041f45176, type: 3}
    - time: 0.6
      value: {fileID: -4239086730106608726, guid: a3bc8123d6424753a308593041f45176, type: 3}
    - time: 0.65
      value: {fileID: -7135315196889032820, guid: a3bc8123d6424753a308593041f45176, type: 3}
    - time: 0.7
      value: {fileID: -6404262785659275854, guid: a3bc8123d6424753a308593041f45176, type: 3}
    - time: 0.75
      value: {fileID: 8024436902973929684, guid: a3bc8123d6424753a308593041f45176, type: 3}
    - time: 0.8
      value: {fileID: -7067107238736697758, guid: a3bc8123d6424753a308593041f45176, type: 3}
    - time: 0.85
      value: {fileID: 36600944216283009, guid: a3bc8123d6424753a308593041f45176, type: 3}
    - time: 0.9
      value: {fileID: 5707261266177503834, guid: a3bc8123d6424753a308593041f45176, type: 3}
    - time: 0.95
      value: {fileID: -1508193731555588470, guid: a3bc8123d6424753a308593041f45176, type: 3}
    - time: 1
      value: {fileID: -4436931903352484734, guid: a3bc8123d6424753a308593041f45176, type: 3}
    attribute: m_Sprite
    path: 
    classID: 212
    script: {fileID: 0}
  m_SampleRate: 20
  m_WrapMode: 0
  m_Bounds:
    m_Center: {x: 0, y: 0, z: 0}
    m_Extent: {x: 0, y: 0, z: 0}
  m_ClipBindingConstant:
    genericBindings:
    - serializedVersion: 2
      path: 0
      attribute: 0
      script: {fileID: 0}
      typeID: 212
      customType: 23
      isPPtrCurve: 1
    pptrCurveMapping:
    - {fileID: 728885175555013623, guid: a3bc8123d6424753a308593041f45176, type: 3}
    - {fileID: -4423521660895949822, guid: a3bc8123d6424753a308593041f45176, type: 3}
    - {fileID: -7537344028346965966, guid: a3bc8123d6424753a308593041f45176, type: 3}
    - {fileID: 7988232121051218619, guid: a3bc8123d6424753a308593041f45176, type: 3}
    - {fileID: -7929112036564245726, guid: a3bc8123d6424753a308593041f45176, type: 3}
    - {fileID: 7685089780970744033, guid: a3bc8123d6424753a308593041f45176, type: 3}
    - {fileID: -1902863987432934309, guid: a3bc8123d6424753a308593041f45176, type: 3}
    - {fileID: 7037477289435499704, guid: a3bc8123d6424753a308593041f45176, type: 3}
    - {fileID: -4495353914786858197, guid: a3bc8123d6424753a308593041f45176, type: 3}
    - {fileID: -6315639042656723349, guid: a3bc8123d6424753a308593041f45176, type: 3}
    - {fileID: -2755164161798337511, guid: a3bc8123d6424753a308593041f45176, type: 3}
    - {fileID: -6814250108344641206, guid: a3bc8123d6424753a308593041f45176, type: 3}
    - {fileID: -4239086730106608726, guid: a3bc8123d6424753a308593041f45176, type: 3}
    - {fileID: -7135315196889032820, guid: a3bc8123d6424753a308593041f45176, type: 3}
    - {fileID: -6404262785659275854, guid: a3bc8123d6424753a308593041f45176, type: 3}
    - {fileID: 8024436902973929684, guid: a3bc8123d6424753a308593041f45176, type: 3}
    - {fileID: -7067107238736697758, guid: a3bc8123d6424753a308593041f45176, type: 3}
    - {fileID: 36600944216283009, guid: a3bc8123d6424753a308593041f45176, type: 3}
    - {fileID: 5707261266177503834, guid: a3bc8123d6424753a308593041f45176, type: 3}
    - {fileID: -1508193731555588470, guid: a3bc8123d6424753a308593041f45176, type: 3}
    - {fileID: -4436931903352484734, guid: a3bc8123d6424753a308593041f45176, type: 3}
  m_AnimationClipSettings:
    serializedVersion: 2
    m_AdditiveReferencePoseClip: {fileID: 0}
    m_AdditiveReferencePoseTime: 0
    m_StartTime: 0
    m_StopTime: 1.05
    m_OrientationOffsetY: 0
    m_Level: 0
    m_CycleOffset: 0
    m_HasAdditiveReferencePose: 0
    m_LoopTime: 1
    m_LoopBlend: 0
    m_LoopBlendOrientation: 0
    m_LoopBlendPositionY: 0
    m_LoopBlendPositionXZ: 0
    m_KeepOriginalOrientation: 0
    m_KeepOriginalPositionY: 1
    m_KeepOriginalPositionXZ: 0
    m_HeightFromFeet: 0
    m_Mirror: 0
  m_EditorCurves: []
  m_EulerEditorCurves: []
  m_HasGenericRootTransform: 0
  m_HasMotionFloatCurves: 0
  m_Events: []
