%YAML 1.1
%TAG !u! tag:unity3d.com,2011:
--- !u!74 &7400000
AnimationClip:
  m_ObjectHideFlags: 0
  m_CorrespondingSourceObject: {fileID: 0}
  m_PrefabInstance: {fileID: 0}
  m_PrefabAsset: {fileID: 0}
  m_Name: carry_down
  serializedVersion: 6
  m_Legacy: 0
  m_Compressed: 0
  m_UseHighQualityCurve: 1
  m_RotationCurves: []
  m_CompressedRotationCurves: []
  m_EulerCurves: []
  m_PositionCurves: []
  m_ScaleCurves: []
  m_FloatCurves: []
  m_PPtrCurves:
  - curve:
    - time: 0
      value: {fileID: -3128037068336569924, guid: 5ec61f3db5fa42b5aa48b949eeafad32, type: 3}
    - time: 0.05
      value: {fileID: -6674943876611404575, guid: 5ec61f3db5fa42b5aa48b949eeafad32, type: 3}
    - time: 0.1
      value: {fileID: 7797569736597768315, guid: 5ec61f3db5fa42b5aa48b949eeafad32, type: 3}
    - time: 0.15
      value: {fileID: -5104648013722330787, guid: 5ec61f3db5fa42b5aa48b949eeafad32, type: 3}
    - time: 0.2
      value: {fileID: -4677826567842810959, guid: 5ec61f3db5fa42b5aa48b949eeafad32, type: 3}
    - time: 0.25
      value: {fileID: -8751079221881120807, guid: 5ec61f3db5fa42b5aa48b949eeafad32, type: 3}
    - time: 0.3
      value: {fileID: 2841737812682434124, guid: 5ec61f3db5fa42b5aa48b949eeafad32, type: 3}
    - time: 0.35
      value: {fileID: -6269825698517289454, guid: 5ec61f3db5fa42b5aa48b949eeafad32, type: 3}
    - time: 0.4
      value: {fileID: -122636674060732625, guid: 5ec61f3db5fa42b5aa48b949eeafad32, type: 3}
    - time: 0.45
      value: {fileID: 3200963126544638904, guid: 5ec61f3db5fa42b5aa48b949eeafad32, type: 3}
    - time: 0.5
      value: {fileID: -5065425045093790454, guid: 5ec61f3db5fa42b5aa48b949eeafad32, type: 3}
    - time: 0.55
      value: {fileID: -3434344436946553047, guid: 5ec61f3db5fa42b5aa48b949eeafad32, type: 3}
    - time: 0.6
      value: {fileID: 2278679909645229579, guid: 5ec61f3db5fa42b5aa48b949eeafad32, type: 3}
    - time: 0.65
      value: {fileID: -4441849069625225473, guid: 5ec61f3db5fa42b5aa48b949eeafad32, type: 3}
    - time: 0.7
      value: {fileID: 3402029787178122587, guid: 5ec61f3db5fa42b5aa48b949eeafad32, type: 3}
    - time: 0.75
      value: {fileID: 3955157866157763726, guid: 5ec61f3db5fa42b5aa48b949eeafad32, type: 3}
    - time: 0.8
      value: {fileID: 7238637107045308188, guid: 5ec61f3db5fa42b5aa48b949eeafad32, type: 3}
    - time: 0.85
      value: {fileID: -1413371265519468203, guid: 5ec61f3db5fa42b5aa48b949eeafad32, type: 3}
    - time: 0.9
      value: {fileID: 3893834564020021103, guid: 5ec61f3db5fa42b5aa48b949eeafad32, type: 3}
    - time: 0.95
      value: {fileID: 6753961537407230559, guid: 5ec61f3db5fa42b5aa48b949eeafad32, type: 3}
    attribute: m_Sprite
    path: 
    classID: 212
    script: {fileID: 0}
  m_SampleRate: 20
  m_WrapMode: 0
  m_Bounds:
    m_Center: {x: 0, y: 0, z: 0}
    m_Extent: {x: 0, y: 0, z: 0}
  m_ClipBindingConstant:
    genericBindings:
    - serializedVersion: 2
      path: 0
      attribute: 0
      script: {fileID: 0}
      typeID: 212
      customType: 23
      isPPtrCurve: 1
    pptrCurveMapping:
    - {fileID: -3128037068336569924, guid: 5ec61f3db5fa42b5aa48b949eeafad32, type: 3}
    - {fileID: -6674943876611404575, guid: 5ec61f3db5fa42b5aa48b949eeafad32, type: 3}
    - {fileID: 7797569736597768315, guid: 5ec61f3db5fa42b5aa48b949eeafad32, type: 3}
    - {fileID: -5104648013722330787, guid: 5ec61f3db5fa42b5aa48b949eeafad32, type: 3}
    - {fileID: -4677826567842810959, guid: 5ec61f3db5fa42b5aa48b949eeafad32, type: 3}
    - {fileID: -8751079221881120807, guid: 5ec61f3db5fa42b5aa48b949eeafad32, type: 3}
    - {fileID: 2841737812682434124, guid: 5ec61f3db5fa42b5aa48b949eeafad32, type: 3}
    - {fileID: -6269825698517289454, guid: 5ec61f3db5fa42b5aa48b949eeafad32, type: 3}
    - {fileID: -122636674060732625, guid: 5ec61f3db5fa42b5aa48b949eeafad32, type: 3}
    - {fileID: 3200963126544638904, guid: 5ec61f3db5fa42b5aa48b949eeafad32, type: 3}
    - {fileID: -5065425045093790454, guid: 5ec61f3db5fa42b5aa48b949eeafad32, type: 3}
    - {fileID: -3434344436946553047, guid: 5ec61f3db5fa42b5aa48b949eeafad32, type: 3}
    - {fileID: 2278679909645229579, guid: 5ec61f3db5fa42b5aa48b949eeafad32, type: 3}
    - {fileID: -4441849069625225473, guid: 5ec61f3db5fa42b5aa48b949eeafad32, type: 3}
    - {fileID: 3402029787178122587, guid: 5ec61f3db5fa42b5aa48b949eeafad32, type: 3}
    - {fileID: 3955157866157763726, guid: 5ec61f3db5fa42b5aa48b949eeafad32, type: 3}
    - {fileID: 7238637107045308188, guid: 5ec61f3db5fa42b5aa48b949eeafad32, type: 3}
    - {fileID: -1413371265519468203, guid: 5ec61f3db5fa42b5aa48b949eeafad32, type: 3}
    - {fileID: 3893834564020021103, guid: 5ec61f3db5fa42b5aa48b949eeafad32, type: 3}
    - {fileID: 6753961537407230559, guid: 5ec61f3db5fa42b5aa48b949eeafad32, type: 3}
  m_AnimationClipSettings:
    serializedVersion: 2
    m_AdditiveReferencePoseClip: {fileID: 0}
    m_AdditiveReferencePoseTime: 0
    m_StartTime: 0
    m_StopTime: 1
    m_OrientationOffsetY: 0
    m_Level: 0
    m_CycleOffset: 0
    m_HasAdditiveReferencePose: 0
    m_LoopTime: 1
    m_LoopBlend: 0
    m_LoopBlendOrientation: 0
    m_LoopBlendPositionY: 0
    m_LoopBlendPositionXZ: 0
    m_KeepOriginalOrientation: 0
    m_KeepOriginalPositionY: 1
    m_KeepOriginalPositionXZ: 0
    m_HeightFromFeet: 0
    m_Mirror: 0
  m_EditorCurves: []
  m_EulerEditorCurves: []
  m_HasGenericRootTransform: 0
  m_HasMotionFloatCurves: 0
  m_Events: []
