%YAML 1.1
%TAG !u! tag:unity3d.com,2011:
--- !u!74 &7400000
AnimationClip:
  m_ObjectHideFlags: 0
  m_CorrespondingSourceObject: {fileID: 0}
  m_PrefabInstance: {fileID: 0}
  m_PrefabAsset: {fileID: 0}
  m_Name: crawl_side
  serializedVersion: 6
  m_Legacy: 0
  m_Compressed: 0
  m_UseHighQualityCurve: 1
  m_RotationCurves: []
  m_CompressedRotationCurves: []
  m_EulerCurves: []
  m_PositionCurves: []
  m_ScaleCurves: []
  m_FloatCurves: []
  m_PPtrCurves:
  - curve:
    - time: 0
      value: {fileID: 8104880570697270812, guid: ff4640ca7e264bf6b8ba7630a104885e, type: 3}
    - time: 0.05
      value: {fileID: -8856784199705759540, guid: ff4640ca7e264bf6b8ba7630a104885e, type: 3}
    - time: 0.1
      value: {fileID: 7452436772714525783, guid: ff4640ca7e264bf6b8ba7630a104885e, type: 3}
    - time: 0.15
      value: {fileID: -860543551424008256, guid: ff4640ca7e264bf6b8ba7630a104885e, type: 3}
    - time: 0.2
      value: {fileID: 3586605008171751350, guid: ff4640ca7e264bf6b8ba7630a104885e, type: 3}
    - time: 0.25
      value: {fileID: -3400195510834182565, guid: ff4640ca7e264bf6b8ba7630a104885e, type: 3}
    - time: 0.3
      value: {fileID: 5449512723201042851, guid: ff4640ca7e264bf6b8ba7630a104885e, type: 3}
    - time: 0.35
      value: {fileID: -7627005738687656529, guid: ff4640ca7e264bf6b8ba7630a104885e, type: 3}
    - time: 0.4
      value: {fileID: 4494362804759634629, guid: ff4640ca7e264bf6b8ba7630a104885e, type: 3}
    - time: 0.45
      value: {fileID: 3569718664385638660, guid: ff4640ca7e264bf6b8ba7630a104885e, type: 3}
    - time: 0.5
      value: {fileID: -3983158180796669194, guid: ff4640ca7e264bf6b8ba7630a104885e, type: 3}
    - time: 0.55
      value: {fileID: 7400986306123696863, guid: ff4640ca7e264bf6b8ba7630a104885e, type: 3}
    - time: 0.6
      value: {fileID: -3057175438058508694, guid: ff4640ca7e264bf6b8ba7630a104885e, type: 3}
    - time: 0.65
      value: {fileID: -8608127710979843644, guid: ff4640ca7e264bf6b8ba7630a104885e, type: 3}
    - time: 0.7
      value: {fileID: -1263638343768063347, guid: ff4640ca7e264bf6b8ba7630a104885e, type: 3}
    - time: 0.75
      value: {fileID: -5579383255283400151, guid: ff4640ca7e264bf6b8ba7630a104885e, type: 3}
    - time: 0.8
      value: {fileID: 2019367882814495041, guid: ff4640ca7e264bf6b8ba7630a104885e, type: 3}
    - time: 0.85
      value: {fileID: 3107586583600170310, guid: ff4640ca7e264bf6b8ba7630a104885e, type: 3}
    - time: 0.9
      value: {fileID: -9137437818618697191, guid: ff4640ca7e264bf6b8ba7630a104885e, type: 3}
    attribute: m_Sprite
    path: 
    classID: 212
    script: {fileID: 0}
  m_SampleRate: 20
  m_WrapMode: 0
  m_Bounds:
    m_Center: {x: 0, y: 0, z: 0}
    m_Extent: {x: 0, y: 0, z: 0}
  m_ClipBindingConstant:
    genericBindings:
    - serializedVersion: 2
      path: 0
      attribute: 0
      script: {fileID: 0}
      typeID: 212
      customType: 23
      isPPtrCurve: 1
    pptrCurveMapping:
    - {fileID: 8104880570697270812, guid: ff4640ca7e264bf6b8ba7630a104885e, type: 3}
    - {fileID: -8856784199705759540, guid: ff4640ca7e264bf6b8ba7630a104885e, type: 3}
    - {fileID: 7452436772714525783, guid: ff4640ca7e264bf6b8ba7630a104885e, type: 3}
    - {fileID: -860543551424008256, guid: ff4640ca7e264bf6b8ba7630a104885e, type: 3}
    - {fileID: 3586605008171751350, guid: ff4640ca7e264bf6b8ba7630a104885e, type: 3}
    - {fileID: -3400195510834182565, guid: ff4640ca7e264bf6b8ba7630a104885e, type: 3}
    - {fileID: 5449512723201042851, guid: ff4640ca7e264bf6b8ba7630a104885e, type: 3}
    - {fileID: -7627005738687656529, guid: ff4640ca7e264bf6b8ba7630a104885e, type: 3}
    - {fileID: 4494362804759634629, guid: ff4640ca7e264bf6b8ba7630a104885e, type: 3}
    - {fileID: 3569718664385638660, guid: ff4640ca7e264bf6b8ba7630a104885e, type: 3}
    - {fileID: -3983158180796669194, guid: ff4640ca7e264bf6b8ba7630a104885e, type: 3}
    - {fileID: 7400986306123696863, guid: ff4640ca7e264bf6b8ba7630a104885e, type: 3}
    - {fileID: -3057175438058508694, guid: ff4640ca7e264bf6b8ba7630a104885e, type: 3}
    - {fileID: -8608127710979843644, guid: ff4640ca7e264bf6b8ba7630a104885e, type: 3}
    - {fileID: -1263638343768063347, guid: ff4640ca7e264bf6b8ba7630a104885e, type: 3}
    - {fileID: -5579383255283400151, guid: ff4640ca7e264bf6b8ba7630a104885e, type: 3}
    - {fileID: 2019367882814495041, guid: ff4640ca7e264bf6b8ba7630a104885e, type: 3}
    - {fileID: 3107586583600170310, guid: ff4640ca7e264bf6b8ba7630a104885e, type: 3}
    - {fileID: -9137437818618697191, guid: ff4640ca7e264bf6b8ba7630a104885e, type: 3}
  m_AnimationClipSettings:
    serializedVersion: 2
    m_AdditiveReferencePoseClip: {fileID: 0}
    m_AdditiveReferencePoseTime: 0
    m_StartTime: 0
    m_StopTime: 0.95
    m_OrientationOffsetY: 0
    m_Level: 0
    m_CycleOffset: 0
    m_HasAdditiveReferencePose: 0
    m_LoopTime: 1
    m_LoopBlend: 0
    m_LoopBlendOrientation: 0
    m_LoopBlendPositionY: 0
    m_LoopBlendPositionXZ: 0
    m_KeepOriginalOrientation: 0
    m_KeepOriginalPositionY: 1
    m_KeepOriginalPositionXZ: 0
    m_HeightFromFeet: 0
    m_Mirror: 0
  m_EditorCurves: []
  m_EulerEditorCurves: []
  m_HasGenericRootTransform: 0
  m_HasMotionFloatCurves: 0
  m_Events: []
