%YAML 1.1
%TAG !u! tag:unity3d.com,2011:
--- !u!74 &7400000
AnimationClip:
  m_ObjectHideFlags: 0
  m_CorrespondingSourceObject: {fileID: 0}
  m_PrefabInstance: {fileID: 0}
  m_PrefabAsset: {fileID: 0}
  m_Name: duck_side
  serializedVersion: 6
  m_Legacy: 0
  m_Compressed: 0
  m_UseHighQualityCurve: 1
  m_RotationCurves: []
  m_CompressedRotationCurves: []
  m_EulerCurves: []
  m_PositionCurves: []
  m_ScaleCurves: []
  m_FloatCurves: []
  m_PPtrCurves:
  - curve:
    - time: 0
      value: {fileID: 1344791590081671701, guid: 136334be99414c40974fd8c94d619ced, type: 3}
    - time: 0.05
      value: {fileID: -4622004861086543357, guid: 136334be99414c40974fd8c94d619ced, type: 3}
    - time: 0.1
      value: {fileID: 6917427917512515579, guid: 136334be99414c40974fd8c94d619ced, type: 3}
    - time: 0.15
      value: {fileID: 9128464831909426468, guid: 136334be99414c40974fd8c94d619ced, type: 3}
    - time: 0.2
      value: {fileID: -3744037640566075914, guid: 136334be99414c40974fd8c94d619ced, type: 3}
    - time: 0.25
      value: {fileID: -2278340888828838438, guid: 136334be99414c40974fd8c94d619ced, type: 3}
    - time: 0.3
      value: {fileID: 8833242378219300543, guid: 136334be99414c40974fd8c94d619ced, type: 3}
    - time: 0.35
      value: {fileID: 3128211078528603228, guid: 136334be99414c40974fd8c94d619ced, type: 3}
    - time: 0.4
      value: {fileID: 3535626423822986886, guid: 136334be99414c40974fd8c94d619ced, type: 3}
    - time: 0.45
      value: {fileID: -5016280064038498352, guid: 136334be99414c40974fd8c94d619ced, type: 3}
    - time: 0.5
      value: {fileID: 4237922455819067315, guid: 136334be99414c40974fd8c94d619ced, type: 3}
    - time: 0.55
      value: {fileID: -6374888537940698430, guid: 136334be99414c40974fd8c94d619ced, type: 3}
    - time: 0.6
      value: {fileID: 8930177442516286323, guid: 136334be99414c40974fd8c94d619ced, type: 3}
    - time: 0.65
      value: {fileID: -4530778766511350845, guid: 136334be99414c40974fd8c94d619ced, type: 3}
    - time: 0.7
      value: {fileID: -2025353271746647176, guid: 136334be99414c40974fd8c94d619ced, type: 3}
    - time: 0.75
      value: {fileID: 1924428185724827869, guid: 136334be99414c40974fd8c94d619ced, type: 3}
    - time: 0.8
      value: {fileID: 7907961042003032892, guid: 136334be99414c40974fd8c94d619ced, type: 3}
    - time: 0.85
      value: {fileID: 8695297598105069540, guid: 136334be99414c40974fd8c94d619ced, type: 3}
    - time: 0.9
      value: {fileID: -5457508475052571294, guid: 136334be99414c40974fd8c94d619ced, type: 3}
    - time: 0.95
      value: {fileID: 3066245980922735109, guid: 136334be99414c40974fd8c94d619ced, type: 3}
    - time: 1
      value: {fileID: -6658836697946391062, guid: 136334be99414c40974fd8c94d619ced, type: 3}
    attribute: m_Sprite
    path: 
    classID: 212
    script: {fileID: 0}
  m_SampleRate: 20
  m_WrapMode: 0
  m_Bounds:
    m_Center: {x: 0, y: 0, z: 0}
    m_Extent: {x: 0, y: 0, z: 0}
  m_ClipBindingConstant:
    genericBindings:
    - serializedVersion: 2
      path: 0
      attribute: 0
      script: {fileID: 0}
      typeID: 212
      customType: 23
      isPPtrCurve: 1
    pptrCurveMapping:
    - {fileID: 1344791590081671701, guid: 136334be99414c40974fd8c94d619ced, type: 3}
    - {fileID: -4622004861086543357, guid: 136334be99414c40974fd8c94d619ced, type: 3}
    - {fileID: 6917427917512515579, guid: 136334be99414c40974fd8c94d619ced, type: 3}
    - {fileID: 9128464831909426468, guid: 136334be99414c40974fd8c94d619ced, type: 3}
    - {fileID: -3744037640566075914, guid: 136334be99414c40974fd8c94d619ced, type: 3}
    - {fileID: -2278340888828838438, guid: 136334be99414c40974fd8c94d619ced, type: 3}
    - {fileID: 8833242378219300543, guid: 136334be99414c40974fd8c94d619ced, type: 3}
    - {fileID: 3128211078528603228, guid: 136334be99414c40974fd8c94d619ced, type: 3}
    - {fileID: 3535626423822986886, guid: 136334be99414c40974fd8c94d619ced, type: 3}
    - {fileID: -5016280064038498352, guid: 136334be99414c40974fd8c94d619ced, type: 3}
    - {fileID: 4237922455819067315, guid: 136334be99414c40974fd8c94d619ced, type: 3}
    - {fileID: -6374888537940698430, guid: 136334be99414c40974fd8c94d619ced, type: 3}
    - {fileID: 8930177442516286323, guid: 136334be99414c40974fd8c94d619ced, type: 3}
    - {fileID: -4530778766511350845, guid: 136334be99414c40974fd8c94d619ced, type: 3}
    - {fileID: -2025353271746647176, guid: 136334be99414c40974fd8c94d619ced, type: 3}
    - {fileID: 1924428185724827869, guid: 136334be99414c40974fd8c94d619ced, type: 3}
    - {fileID: 7907961042003032892, guid: 136334be99414c40974fd8c94d619ced, type: 3}
    - {fileID: 8695297598105069540, guid: 136334be99414c40974fd8c94d619ced, type: 3}
    - {fileID: -5457508475052571294, guid: 136334be99414c40974fd8c94d619ced, type: 3}
    - {fileID: 3066245980922735109, guid: 136334be99414c40974fd8c94d619ced, type: 3}
    - {fileID: -6658836697946391062, guid: 136334be99414c40974fd8c94d619ced, type: 3}
  m_AnimationClipSettings:
    serializedVersion: 2
    m_AdditiveReferencePoseClip: {fileID: 0}
    m_AdditiveReferencePoseTime: 0
    m_StartTime: 0
    m_StopTime: 1.05
    m_OrientationOffsetY: 0
    m_Level: 0
    m_CycleOffset: 0
    m_HasAdditiveReferencePose: 0
    m_LoopTime: 1
    m_LoopBlend: 0
    m_LoopBlendOrientation: 0
    m_LoopBlendPositionY: 0
    m_LoopBlendPositionXZ: 0
    m_KeepOriginalOrientation: 0
    m_KeepOriginalPositionY: 1
    m_KeepOriginalPositionXZ: 0
    m_HeightFromFeet: 0
    m_Mirror: 0
  m_EditorCurves: []
  m_EulerEditorCurves: []
  m_HasGenericRootTransform: 0
  m_HasMotionFloatCurves: 0
  m_Events: []
