%YAML 1.1
%TAG !u! tag:unity3d.com,2011:
--- !u!74 &7400000
AnimationClip:
  m_ObjectHideFlags: 0
  m_CorrespondingSourceObject: {fileID: 0}
  m_PrefabInstance: {fileID: 0}
  m_PrefabAsset: {fileID: 0}
  m_Name: duck_up
  serializedVersion: 6
  m_Legacy: 0
  m_Compressed: 0
  m_UseHighQualityCurve: 1
  m_RotationCurves: []
  m_CompressedRotationCurves: []
  m_EulerCurves: []
  m_PositionCurves: []
  m_ScaleCurves: []
  m_FloatCurves: []
  m_PPtrCurves:
  - curve:
    - time: 0
      value: {fileID: 3231157197927190924, guid: 136334be99414c40974fd8c94d619ced, type: 3}
    - time: 0.05
      value: {fileID: 8094224112666479365, guid: 136334be99414c40974fd8c94d619ced, type: 3}
    - time: 0.1
      value: {fileID: -3785705699238326261, guid: 136334be99414c40974fd8c94d619ced, type: 3}
    - time: 0.15
      value: {fileID: 1367903803929217604, guid: 136334be99414c40974fd8c94d619ced, type: 3}
    - time: 0.2
      value: {fileID: -3381358204104814903, guid: 136334be99414c40974fd8c94d619ced, type: 3}
    - time: 0.25
      value: {fileID: 6501719457044031827, guid: 136334be99414c40974fd8c94d619ced, type: 3}
    - time: 0.3
      value: {fileID: -5997747185040521354, guid: 136334be99414c40974fd8c94d619ced, type: 3}
    - time: 0.35
      value: {fileID: -7597380021795514760, guid: 136334be99414c40974fd8c94d619ced, type: 3}
    - time: 0.4
      value: {fileID: 2227884930106996778, guid: 136334be99414c40974fd8c94d619ced, type: 3}
    - time: 0.45
      value: {fileID: -797420047129379969, guid: 136334be99414c40974fd8c94d619ced, type: 3}
    - time: 0.5
      value: {fileID: 6104756564883046729, guid: 136334be99414c40974fd8c94d619ced, type: 3}
    - time: 0.55
      value: {fileID: -2787460764703228367, guid: 136334be99414c40974fd8c94d619ced, type: 3}
    - time: 0.6
      value: {fileID: -4943662331558001405, guid: 136334be99414c40974fd8c94d619ced, type: 3}
    - time: 0.65
      value: {fileID: -8065229250586772865, guid: 136334be99414c40974fd8c94d619ced, type: 3}
    - time: 0.7
      value: {fileID: -2707982953113809008, guid: 136334be99414c40974fd8c94d619ced, type: 3}
    - time: 0.75
      value: {fileID: -5681250357072891710, guid: 136334be99414c40974fd8c94d619ced, type: 3}
    - time: 0.8
      value: {fileID: -6852641618227507399, guid: 136334be99414c40974fd8c94d619ced, type: 3}
    - time: 0.85
      value: {fileID: 7766211686730875367, guid: 136334be99414c40974fd8c94d619ced, type: 3}
    - time: 0.9
      value: {fileID: 2878629085889375282, guid: 136334be99414c40974fd8c94d619ced, type: 3}
    - time: 0.95
      value: {fileID: -1615004377717876159, guid: 136334be99414c40974fd8c94d619ced, type: 3}
    - time: 1
      value: {fileID: 1285583234244806427, guid: 136334be99414c40974fd8c94d619ced, type: 3}
    attribute: m_Sprite
    path: 
    classID: 212
    script: {fileID: 0}
  m_SampleRate: 20
  m_WrapMode: 0
  m_Bounds:
    m_Center: {x: 0, y: 0, z: 0}
    m_Extent: {x: 0, y: 0, z: 0}
  m_ClipBindingConstant:
    genericBindings:
    - serializedVersion: 2
      path: 0
      attribute: 0
      script: {fileID: 0}
      typeID: 212
      customType: 23
      isPPtrCurve: 1
    pptrCurveMapping:
    - {fileID: 3231157197927190924, guid: 136334be99414c40974fd8c94d619ced, type: 3}
    - {fileID: 8094224112666479365, guid: 136334be99414c40974fd8c94d619ced, type: 3}
    - {fileID: -3785705699238326261, guid: 136334be99414c40974fd8c94d619ced, type: 3}
    - {fileID: 1367903803929217604, guid: 136334be99414c40974fd8c94d619ced, type: 3}
    - {fileID: -3381358204104814903, guid: 136334be99414c40974fd8c94d619ced, type: 3}
    - {fileID: 6501719457044031827, guid: 136334be99414c40974fd8c94d619ced, type: 3}
    - {fileID: -5997747185040521354, guid: 136334be99414c40974fd8c94d619ced, type: 3}
    - {fileID: -7597380021795514760, guid: 136334be99414c40974fd8c94d619ced, type: 3}
    - {fileID: 2227884930106996778, guid: 136334be99414c40974fd8c94d619ced, type: 3}
    - {fileID: -797420047129379969, guid: 136334be99414c40974fd8c94d619ced, type: 3}
    - {fileID: 6104756564883046729, guid: 136334be99414c40974fd8c94d619ced, type: 3}
    - {fileID: -2787460764703228367, guid: 136334be99414c40974fd8c94d619ced, type: 3}
    - {fileID: -4943662331558001405, guid: 136334be99414c40974fd8c94d619ced, type: 3}
    - {fileID: -8065229250586772865, guid: 136334be99414c40974fd8c94d619ced, type: 3}
    - {fileID: -2707982953113809008, guid: 136334be99414c40974fd8c94d619ced, type: 3}
    - {fileID: -5681250357072891710, guid: 136334be99414c40974fd8c94d619ced, type: 3}
    - {fileID: -6852641618227507399, guid: 136334be99414c40974fd8c94d619ced, type: 3}
    - {fileID: 7766211686730875367, guid: 136334be99414c40974fd8c94d619ced, type: 3}
    - {fileID: 2878629085889375282, guid: 136334be99414c40974fd8c94d619ced, type: 3}
    - {fileID: -1615004377717876159, guid: 136334be99414c40974fd8c94d619ced, type: 3}
    - {fileID: 1285583234244806427, guid: 136334be99414c40974fd8c94d619ced, type: 3}
  m_AnimationClipSettings:
    serializedVersion: 2
    m_AdditiveReferencePoseClip: {fileID: 0}
    m_AdditiveReferencePoseTime: 0
    m_StartTime: 0
    m_StopTime: 1.05
    m_OrientationOffsetY: 0
    m_Level: 0
    m_CycleOffset: 0
    m_HasAdditiveReferencePose: 0
    m_LoopTime: 1
    m_LoopBlend: 0
    m_LoopBlendOrientation: 0
    m_LoopBlendPositionY: 0
    m_LoopBlendPositionXZ: 0
    m_KeepOriginalOrientation: 0
    m_KeepOriginalPositionY: 1
    m_KeepOriginalPositionXZ: 0
    m_HeightFromFeet: 0
    m_Mirror: 0
  m_EditorCurves: []
  m_EulerEditorCurves: []
  m_HasGenericRootTransform: 0
  m_HasMotionFloatCurves: 0
  m_Events: []
