%YAML 1.1
%TAG !u! tag:unity3d.com,2011:
--- !u!74 &7400000
AnimationClip:
  m_ObjectHideFlags: 0
  m_CorrespondingSourceObject: {fileID: 0}
  m_PrefabInstance: {fileID: 0}
  m_PrefabAsset: {fileID: 0}
  m_Name: duck_down
  serializedVersion: 6
  m_Legacy: 0
  m_Compressed: 0
  m_UseHighQualityCurve: 1
  m_RotationCurves: []
  m_CompressedRotationCurves: []
  m_EulerCurves: []
  m_PositionCurves: []
  m_ScaleCurves: []
  m_FloatCurves: []
  m_PPtrCurves:
  - curve:
    - time: 0
      value: {fileID: 8868729072188591806, guid: 136334be99414c40974fd8c94d619ced, type: 3}
    - time: 0.05
      value: {fileID: -8294748474342274760, guid: 136334be99414c40974fd8c94d619ced, type: 3}
    - time: 0.1
      value: {fileID: 8781019514964437993, guid: 136334be99414c40974fd8c94d619ced, type: 3}
    - time: 0.15
      value: {fileID: 7708609292541582763, guid: 136334be99414c40974fd8c94d619ced, type: 3}
    - time: 0.2
      value: {fileID: 9075362701424418546, guid: 136334be99414c40974fd8c94d619ced, type: 3}
    - time: 0.25
      value: {fileID: 3317177067112860294, guid: 136334be99414c40974fd8c94d619ced, type: 3}
    - time: 0.3
      value: {fileID: 1033602697210819807, guid: 136334be99414c40974fd8c94d619ced, type: 3}
    - time: 0.35
      value: {fileID: -7932545495831442223, guid: 136334be99414c40974fd8c94d619ced, type: 3}
    - time: 0.4
      value: {fileID: 2389687256989883966, guid: 136334be99414c40974fd8c94d619ced, type: 3}
    - time: 0.45
      value: {fileID: -2314811285531435719, guid: 136334be99414c40974fd8c94d619ced, type: 3}
    - time: 0.5
      value: {fileID: -8714810235140825349, guid: 136334be99414c40974fd8c94d619ced, type: 3}
    - time: 0.55
      value: {fileID: 7191234374140364801, guid: 136334be99414c40974fd8c94d619ced, type: 3}
    - time: 0.6
      value: {fileID: -7941081705375039924, guid: 136334be99414c40974fd8c94d619ced, type: 3}
    - time: 0.65
      value: {fileID: 5585218031046668443, guid: 136334be99414c40974fd8c94d619ced, type: 3}
    - time: 0.7
      value: {fileID: 8618557845021635128, guid: 136334be99414c40974fd8c94d619ced, type: 3}
    - time: 0.75
      value: {fileID: 4106681351708315090, guid: 136334be99414c40974fd8c94d619ced, type: 3}
    - time: 0.8
      value: {fileID: 1903458071876352876, guid: 136334be99414c40974fd8c94d619ced, type: 3}
    - time: 0.85
      value: {fileID: -8277162844378544181, guid: 136334be99414c40974fd8c94d619ced, type: 3}
    - time: 0.9
      value: {fileID: 3310240250790063010, guid: 136334be99414c40974fd8c94d619ced, type: 3}
    - time: 0.95
      value: {fileID: -6807529072396055322, guid: 136334be99414c40974fd8c94d619ced, type: 3}
    - time: 1
      value: {fileID: -418735833604955049, guid: 136334be99414c40974fd8c94d619ced, type: 3}
    attribute: m_Sprite
    path: 
    classID: 212
    script: {fileID: 0}
  m_SampleRate: 20
  m_WrapMode: 0
  m_Bounds:
    m_Center: {x: 0, y: 0, z: 0}
    m_Extent: {x: 0, y: 0, z: 0}
  m_ClipBindingConstant:
    genericBindings:
    - serializedVersion: 2
      path: 0
      attribute: 0
      script: {fileID: 0}
      typeID: 212
      customType: 23
      isPPtrCurve: 1
    pptrCurveMapping:
    - {fileID: 8868729072188591806, guid: 136334be99414c40974fd8c94d619ced, type: 3}
    - {fileID: -8294748474342274760, guid: 136334be99414c40974fd8c94d619ced, type: 3}
    - {fileID: 8781019514964437993, guid: 136334be99414c40974fd8c94d619ced, type: 3}
    - {fileID: 7708609292541582763, guid: 136334be99414c40974fd8c94d619ced, type: 3}
    - {fileID: 9075362701424418546, guid: 136334be99414c40974fd8c94d619ced, type: 3}
    - {fileID: 3317177067112860294, guid: 136334be99414c40974fd8c94d619ced, type: 3}
    - {fileID: 1033602697210819807, guid: 136334be99414c40974fd8c94d619ced, type: 3}
    - {fileID: -7932545495831442223, guid: 136334be99414c40974fd8c94d619ced, type: 3}
    - {fileID: 2389687256989883966, guid: 136334be99414c40974fd8c94d619ced, type: 3}
    - {fileID: -2314811285531435719, guid: 136334be99414c40974fd8c94d619ced, type: 3}
    - {fileID: -8714810235140825349, guid: 136334be99414c40974fd8c94d619ced, type: 3}
    - {fileID: 7191234374140364801, guid: 136334be99414c40974fd8c94d619ced, type: 3}
    - {fileID: -7941081705375039924, guid: 136334be99414c40974fd8c94d619ced, type: 3}
    - {fileID: 5585218031046668443, guid: 136334be99414c40974fd8c94d619ced, type: 3}
    - {fileID: 8618557845021635128, guid: 136334be99414c40974fd8c94d619ced, type: 3}
    - {fileID: 4106681351708315090, guid: 136334be99414c40974fd8c94d619ced, type: 3}
    - {fileID: 1903458071876352876, guid: 136334be99414c40974fd8c94d619ced, type: 3}
    - {fileID: -8277162844378544181, guid: 136334be99414c40974fd8c94d619ced, type: 3}
    - {fileID: 3310240250790063010, guid: 136334be99414c40974fd8c94d619ced, type: 3}
    - {fileID: -6807529072396055322, guid: 136334be99414c40974fd8c94d619ced, type: 3}
    - {fileID: -418735833604955049, guid: 136334be99414c40974fd8c94d619ced, type: 3}
  m_AnimationClipSettings:
    serializedVersion: 2
    m_AdditiveReferencePoseClip: {fileID: 0}
    m_AdditiveReferencePoseTime: 0
    m_StartTime: 0
    m_StopTime: 1.05
    m_OrientationOffsetY: 0
    m_Level: 0
    m_CycleOffset: 0
    m_HasAdditiveReferencePose: 0
    m_LoopTime: 1
    m_LoopBlend: 0
    m_LoopBlendOrientation: 0
    m_LoopBlendPositionY: 0
    m_LoopBlendPositionXZ: 0
    m_KeepOriginalOrientation: 0
    m_KeepOriginalPositionY: 1
    m_KeepOriginalPositionXZ: 0
    m_HeightFromFeet: 0
    m_Mirror: 0
  m_EditorCurves: []
  m_EulerEditorCurves: []
  m_HasGenericRootTransform: 0
  m_HasMotionFloatCurves: 0
  m_Events: []
