%YAML 1.1
%TAG !u! tag:unity3d.com,2011:
--- !u!74 &7400000
AnimationClip:
  m_ObjectHideFlags: 0
  m_CorrespondingSourceObject: {fileID: 0}
  m_PrefabInstance: {fileID: 0}
  m_PrefabAsset: {fileID: 0}
  m_Name: hammer_down
  serializedVersion: 6
  m_Legacy: 0
  m_Compressed: 0
  m_UseHighQualityCurve: 1
  m_RotationCurves: []
  m_CompressedRotationCurves: []
  m_EulerCurves: []
  m_PositionCurves: []
  m_ScaleCurves: []
  m_FloatCurves: []
  m_PPtrCurves:
  - curve:
    - time: 0
      value: {fileID: 6204423399410510615, guid: 940f25b913794fa2904fe9ac5a7c8bb0, type: 3}
    - time: 0.05
      value: {fileID: 3802440789794144242, guid: 940f25b913794fa2904fe9ac5a7c8bb0, type: 3}
    - time: 0.1
      value: {fileID: 8875731276440698387, guid: 940f25b913794fa2904fe9ac5a7c8bb0, type: 3}
    - time: 0.15
      value: {fileID: -5719898707453816783, guid: 940f25b913794fa2904fe9ac5a7c8bb0, type: 3}
    - time: 0.2
      value: {fileID: 3746224243573389633, guid: 940f25b913794fa2904fe9ac5a7c8bb0, type: 3}
    - time: 0.25
      value: {fileID: 8637016385685458110, guid: 940f25b913794fa2904fe9ac5a7c8bb0, type: 3}
    - time: 0.3
      value: {fileID: 8395477673039060702, guid: 940f25b913794fa2904fe9ac5a7c8bb0, type: 3}
    - time: 0.35
      value: {fileID: -4640053971369523161, guid: 940f25b913794fa2904fe9ac5a7c8bb0, type: 3}
    - time: 0.4
      value: {fileID: 3720013395567333592, guid: 940f25b913794fa2904fe9ac5a7c8bb0, type: 3}
    - time: 0.45
      value: {fileID: -7829650327012590710, guid: 940f25b913794fa2904fe9ac5a7c8bb0, type: 3}
    - time: 0.5
      value: {fileID: -529641917805584282, guid: 940f25b913794fa2904fe9ac5a7c8bb0, type: 3}
    - time: 0.55
      value: {fileID: -5749438563543516831, guid: 940f25b913794fa2904fe9ac5a7c8bb0, type: 3}
    - time: 0.6
      value: {fileID: -892874023095245648, guid: 940f25b913794fa2904fe9ac5a7c8bb0, type: 3}
    - time: 0.65
      value: {fileID: 447057644196353604, guid: 940f25b913794fa2904fe9ac5a7c8bb0, type: 3}
    - time: 0.7
      value: {fileID: -2847747920347511190, guid: 940f25b913794fa2904fe9ac5a7c8bb0, type: 3}
    - time: 0.75
      value: {fileID: 8944694689506869501, guid: 940f25b913794fa2904fe9ac5a7c8bb0, type: 3}
    - time: 0.8
      value: {fileID: -6763761567236526583, guid: 940f25b913794fa2904fe9ac5a7c8bb0, type: 3}
    - time: 0.85
      value: {fileID: 6955622604629860418, guid: 940f25b913794fa2904fe9ac5a7c8bb0, type: 3}
    - time: 0.9
      value: {fileID: -2893778390963568082, guid: 940f25b913794fa2904fe9ac5a7c8bb0, type: 3}
    - time: 0.95
      value: {fileID: -7360400304423370919, guid: 940f25b913794fa2904fe9ac5a7c8bb0, type: 3}
    - time: 1
      value: {fileID: 2727831115194732603, guid: 940f25b913794fa2904fe9ac5a7c8bb0, type: 3}
    - time: 1.05
      value: {fileID: -1224566600918706086, guid: 940f25b913794fa2904fe9ac5a7c8bb0, type: 3}
    - time: 1.1
      value: {fileID: 5537542389833841543, guid: 940f25b913794fa2904fe9ac5a7c8bb0, type: 3}
    attribute: m_Sprite
    path: 
    classID: 212
    script: {fileID: 0}
  m_SampleRate: 20
  m_WrapMode: 0
  m_Bounds:
    m_Center: {x: 0, y: 0, z: 0}
    m_Extent: {x: 0, y: 0, z: 0}
  m_ClipBindingConstant:
    genericBindings:
    - serializedVersion: 2
      path: 0
      attribute: 0
      script: {fileID: 0}
      typeID: 212
      customType: 23
      isPPtrCurve: 1
    pptrCurveMapping:
    - {fileID: 6204423399410510615, guid: 940f25b913794fa2904fe9ac5a7c8bb0, type: 3}
    - {fileID: 3802440789794144242, guid: 940f25b913794fa2904fe9ac5a7c8bb0, type: 3}
    - {fileID: 8875731276440698387, guid: 940f25b913794fa2904fe9ac5a7c8bb0, type: 3}
    - {fileID: -5719898707453816783, guid: 940f25b913794fa2904fe9ac5a7c8bb0, type: 3}
    - {fileID: 3746224243573389633, guid: 940f25b913794fa2904fe9ac5a7c8bb0, type: 3}
    - {fileID: 8637016385685458110, guid: 940f25b913794fa2904fe9ac5a7c8bb0, type: 3}
    - {fileID: 8395477673039060702, guid: 940f25b913794fa2904fe9ac5a7c8bb0, type: 3}
    - {fileID: -4640053971369523161, guid: 940f25b913794fa2904fe9ac5a7c8bb0, type: 3}
    - {fileID: 3720013395567333592, guid: 940f25b913794fa2904fe9ac5a7c8bb0, type: 3}
    - {fileID: -7829650327012590710, guid: 940f25b913794fa2904fe9ac5a7c8bb0, type: 3}
    - {fileID: -529641917805584282, guid: 940f25b913794fa2904fe9ac5a7c8bb0, type: 3}
    - {fileID: -5749438563543516831, guid: 940f25b913794fa2904fe9ac5a7c8bb0, type: 3}
    - {fileID: -892874023095245648, guid: 940f25b913794fa2904fe9ac5a7c8bb0, type: 3}
    - {fileID: 447057644196353604, guid: 940f25b913794fa2904fe9ac5a7c8bb0, type: 3}
    - {fileID: -2847747920347511190, guid: 940f25b913794fa2904fe9ac5a7c8bb0, type: 3}
    - {fileID: 8944694689506869501, guid: 940f25b913794fa2904fe9ac5a7c8bb0, type: 3}
    - {fileID: -6763761567236526583, guid: 940f25b913794fa2904fe9ac5a7c8bb0, type: 3}
    - {fileID: 6955622604629860418, guid: 940f25b913794fa2904fe9ac5a7c8bb0, type: 3}
    - {fileID: -2893778390963568082, guid: 940f25b913794fa2904fe9ac5a7c8bb0, type: 3}
    - {fileID: -7360400304423370919, guid: 940f25b913794fa2904fe9ac5a7c8bb0, type: 3}
    - {fileID: 2727831115194732603, guid: 940f25b913794fa2904fe9ac5a7c8bb0, type: 3}
    - {fileID: -1224566600918706086, guid: 940f25b913794fa2904fe9ac5a7c8bb0, type: 3}
    - {fileID: 5537542389833841543, guid: 940f25b913794fa2904fe9ac5a7c8bb0, type: 3}
  m_AnimationClipSettings:
    serializedVersion: 2
    m_AdditiveReferencePoseClip: {fileID: 0}
    m_AdditiveReferencePoseTime: 0
    m_StartTime: 0
    m_StopTime: 1.15
    m_OrientationOffsetY: 0
    m_Level: 0
    m_CycleOffset: 0
    m_HasAdditiveReferencePose: 0
    m_LoopTime: 1
    m_LoopBlend: 0
    m_LoopBlendOrientation: 0
    m_LoopBlendPositionY: 0
    m_LoopBlendPositionXZ: 0
    m_KeepOriginalOrientation: 0
    m_KeepOriginalPositionY: 1
    m_KeepOriginalPositionXZ: 0
    m_HeightFromFeet: 0
    m_Mirror: 0
  m_EditorCurves: []
  m_EulerEditorCurves: []
  m_HasGenericRootTransform: 0
  m_HasMotionFloatCurves: 0
  m_Events: []
