%YAML 1.1
%TAG !u! tag:unity3d.com,2011:
--- !u!74 &7400000
AnimationClip:
  m_ObjectHideFlags: 0
  m_CorrespondingSourceObject: {fileID: 0}
  m_PrefabInstance: {fileID: 0}
  m_PrefabAsset: {fileID: 0}
  m_Name: hit1_side
  serializedVersion: 6
  m_Legacy: 0
  m_Compressed: 0
  m_UseHighQualityCurve: 1
  m_RotationCurves: []
  m_CompressedRotationCurves: []
  m_EulerCurves: []
  m_PositionCurves: []
  m_ScaleCurves: []
  m_FloatCurves: []
  m_PPtrCurves:
  - curve:
    - time: 0
      value: {fileID: -8046190722727522557, guid: 7871e2380017455fbd6f23736d2f7355, type: 3}
    - time: 0.05
      value: {fileID: -6595480719670732901, guid: 7871e2380017455fbd6f23736d2f7355, type: 3}
    - time: 0.1
      value: {fileID: -5094733318587278254, guid: 7871e2380017455fbd6f23736d2f7355, type: 3}
    - time: 0.15
      value: {fileID: 2352918751164785042, guid: 7871e2380017455fbd6f23736d2f7355, type: 3}
    - time: 0.2
      value: {fileID: -4992409330872400339, guid: 7871e2380017455fbd6f23736d2f7355, type: 3}
    - time: 0.25
      value: {fileID: 7226319234730692680, guid: 7871e2380017455fbd6f23736d2f7355, type: 3}
    - time: 0.3
      value: {fileID: 7131746252929832925, guid: 7871e2380017455fbd6f23736d2f7355, type: 3}
    - time: 0.35
      value: {fileID: -7371143778281236097, guid: 7871e2380017455fbd6f23736d2f7355, type: 3}
    - time: 0.4
      value: {fileID: 5131319598508804731, guid: 7871e2380017455fbd6f23736d2f7355, type: 3}
    - time: 0.45
      value: {fileID: -5953962995171985089, guid: 7871e2380017455fbd6f23736d2f7355, type: 3}
    - time: 0.5
      value: {fileID: -4135736376215796703, guid: 7871e2380017455fbd6f23736d2f7355, type: 3}
    - time: 0.55
      value: {fileID: -1333566997291636006, guid: 7871e2380017455fbd6f23736d2f7355, type: 3}
    - time: 0.6
      value: {fileID: -7316817943037319735, guid: 7871e2380017455fbd6f23736d2f7355, type: 3}
    attribute: m_Sprite
    path: 
    classID: 212
    script: {fileID: 0}
  m_SampleRate: 20
  m_WrapMode: 0
  m_Bounds:
    m_Center: {x: 0, y: 0, z: 0}
    m_Extent: {x: 0, y: 0, z: 0}
  m_ClipBindingConstant:
    genericBindings:
    - serializedVersion: 2
      path: 0
      attribute: 0
      script: {fileID: 0}
      typeID: 212
      customType: 23
      isPPtrCurve: 1
    pptrCurveMapping:
    - {fileID: -8046190722727522557, guid: 7871e2380017455fbd6f23736d2f7355, type: 3}
    - {fileID: -6595480719670732901, guid: 7871e2380017455fbd6f23736d2f7355, type: 3}
    - {fileID: -5094733318587278254, guid: 7871e2380017455fbd6f23736d2f7355, type: 3}
    - {fileID: 2352918751164785042, guid: 7871e2380017455fbd6f23736d2f7355, type: 3}
    - {fileID: -4992409330872400339, guid: 7871e2380017455fbd6f23736d2f7355, type: 3}
    - {fileID: 7226319234730692680, guid: 7871e2380017455fbd6f23736d2f7355, type: 3}
    - {fileID: 7131746252929832925, guid: 7871e2380017455fbd6f23736d2f7355, type: 3}
    - {fileID: -7371143778281236097, guid: 7871e2380017455fbd6f23736d2f7355, type: 3}
    - {fileID: 5131319598508804731, guid: 7871e2380017455fbd6f23736d2f7355, type: 3}
    - {fileID: -5953962995171985089, guid: 7871e2380017455fbd6f23736d2f7355, type: 3}
    - {fileID: -4135736376215796703, guid: 7871e2380017455fbd6f23736d2f7355, type: 3}
    - {fileID: -1333566997291636006, guid: 7871e2380017455fbd6f23736d2f7355, type: 3}
    - {fileID: -7316817943037319735, guid: 7871e2380017455fbd6f23736d2f7355, type: 3}
  m_AnimationClipSettings:
    serializedVersion: 2
    m_AdditiveReferencePoseClip: {fileID: 0}
    m_AdditiveReferencePoseTime: 0
    m_StartTime: 0
    m_StopTime: 0.65000004
    m_OrientationOffsetY: 0
    m_Level: 0
    m_CycleOffset: 0
    m_HasAdditiveReferencePose: 0
    m_LoopTime: 1
    m_LoopBlend: 0
    m_LoopBlendOrientation: 0
    m_LoopBlendPositionY: 0
    m_LoopBlendPositionXZ: 0
    m_KeepOriginalOrientation: 0
    m_KeepOriginalPositionY: 1
    m_KeepOriginalPositionXZ: 0
    m_HeightFromFeet: 0
    m_Mirror: 0
  m_EditorCurves: []
  m_EulerEditorCurves: []
  m_HasGenericRootTransform: 0
  m_HasMotionFloatCurves: 0
  m_Events: []
