%YAML 1.1
%TAG !u! tag:unity3d.com,2011:
--- !u!74 &7400000
AnimationClip:
  m_ObjectHideFlags: 0
  m_CorrespondingSourceObject: {fileID: 0}
  m_PrefabInstance: {fileID: 0}
  m_PrefabAsset: {fileID: 0}
  m_Name: idle_up
  serializedVersion: 6
  m_Legacy: 0
  m_Compressed: 0
  m_UseHighQualityCurve: 1
  m_RotationCurves: []
  m_CompressedRotationCurves: []
  m_EulerCurves: []
  m_PositionCurves: []
  m_ScaleCurves: []
  m_FloatCurves: []
  m_PPtrCurves:
  - curve:
    - time: 0
      value: {fileID: 3838556530734163676, guid: 32c084dd10e24a0995693988ea9bf2a5, type: 3}
    - time: 0.05
      value: {fileID: -1499976257121873182, guid: 32c084dd10e24a0995693988ea9bf2a5, type: 3}
    - time: 0.1
      value: {fileID: 168846979551174993, guid: 32c084dd10e24a0995693988ea9bf2a5, type: 3}
    - time: 0.15
      value: {fileID: 1848214276972832728, guid: 32c084dd10e24a0995693988ea9bf2a5, type: 3}
    - time: 0.2
      value: {fileID: -5438464607267775908, guid: 32c084dd10e24a0995693988ea9bf2a5, type: 3}
    - time: 0.25
      value: {fileID: -2162490490912676814, guid: 32c084dd10e24a0995693988ea9bf2a5, type: 3}
    - time: 0.3
      value: {fileID: -2923966642950171172, guid: 32c084dd10e24a0995693988ea9bf2a5, type: 3}
    - time: 0.35
      value: {fileID: -4266579293378190299, guid: 32c084dd10e24a0995693988ea9bf2a5, type: 3}
    - time: 0.4
      value: {fileID: -2616059018411542186, guid: 32c084dd10e24a0995693988ea9bf2a5, type: 3}
    - time: 0.45
      value: {fileID: 8979487438362149139, guid: 32c084dd10e24a0995693988ea9bf2a5, type: 3}
    - time: 0.5
      value: {fileID: 841086773508559625, guid: 32c084dd10e24a0995693988ea9bf2a5, type: 3}
    - time: 0.55
      value: {fileID: -5243070509038418389, guid: 32c084dd10e24a0995693988ea9bf2a5, type: 3}
    - time: 0.6
      value: {fileID: -6981167418715947851, guid: 32c084dd10e24a0995693988ea9bf2a5, type: 3}
    - time: 0.65
      value: {fileID: 9209814845565376561, guid: 32c084dd10e24a0995693988ea9bf2a5, type: 3}
    - time: 0.7
      value: {fileID: -2952999747656002874, guid: 32c084dd10e24a0995693988ea9bf2a5, type: 3}
    - time: 0.75
      value: {fileID: 8697369147165302195, guid: 32c084dd10e24a0995693988ea9bf2a5, type: 3}
    - time: 0.8
      value: {fileID: -8940617572574351099, guid: 32c084dd10e24a0995693988ea9bf2a5, type: 3}
    - time: 0.85
      value: {fileID: 516610896262579559, guid: 32c084dd10e24a0995693988ea9bf2a5, type: 3}
    - time: 0.9
      value: {fileID: 2254349733851700077, guid: 32c084dd10e24a0995693988ea9bf2a5, type: 3}
    - time: 0.95
      value: {fileID: -3260541572077893329, guid: 32c084dd10e24a0995693988ea9bf2a5, type: 3}
    - time: 1
      value: {fileID: -3299202918059221898, guid: 32c084dd10e24a0995693988ea9bf2a5, type: 3}
    attribute: m_Sprite
    path: 
    classID: 212
    script: {fileID: 0}
  m_SampleRate: 20
  m_WrapMode: 0
  m_Bounds:
    m_Center: {x: 0, y: 0, z: 0}
    m_Extent: {x: 0, y: 0, z: 0}
  m_ClipBindingConstant:
    genericBindings:
    - serializedVersion: 2
      path: 0
      attribute: 0
      script: {fileID: 0}
      typeID: 212
      customType: 23
      isPPtrCurve: 1
    pptrCurveMapping:
    - {fileID: 3838556530734163676, guid: 32c084dd10e24a0995693988ea9bf2a5, type: 3}
    - {fileID: -1499976257121873182, guid: 32c084dd10e24a0995693988ea9bf2a5, type: 3}
    - {fileID: 168846979551174993, guid: 32c084dd10e24a0995693988ea9bf2a5, type: 3}
    - {fileID: 1848214276972832728, guid: 32c084dd10e24a0995693988ea9bf2a5, type: 3}
    - {fileID: -5438464607267775908, guid: 32c084dd10e24a0995693988ea9bf2a5, type: 3}
    - {fileID: -2162490490912676814, guid: 32c084dd10e24a0995693988ea9bf2a5, type: 3}
    - {fileID: -2923966642950171172, guid: 32c084dd10e24a0995693988ea9bf2a5, type: 3}
    - {fileID: -4266579293378190299, guid: 32c084dd10e24a0995693988ea9bf2a5, type: 3}
    - {fileID: -2616059018411542186, guid: 32c084dd10e24a0995693988ea9bf2a5, type: 3}
    - {fileID: 8979487438362149139, guid: 32c084dd10e24a0995693988ea9bf2a5, type: 3}
    - {fileID: 841086773508559625, guid: 32c084dd10e24a0995693988ea9bf2a5, type: 3}
    - {fileID: -5243070509038418389, guid: 32c084dd10e24a0995693988ea9bf2a5, type: 3}
    - {fileID: -6981167418715947851, guid: 32c084dd10e24a0995693988ea9bf2a5, type: 3}
    - {fileID: 9209814845565376561, guid: 32c084dd10e24a0995693988ea9bf2a5, type: 3}
    - {fileID: -2952999747656002874, guid: 32c084dd10e24a0995693988ea9bf2a5, type: 3}
    - {fileID: 8697369147165302195, guid: 32c084dd10e24a0995693988ea9bf2a5, type: 3}
    - {fileID: -8940617572574351099, guid: 32c084dd10e24a0995693988ea9bf2a5, type: 3}
    - {fileID: 516610896262579559, guid: 32c084dd10e24a0995693988ea9bf2a5, type: 3}
    - {fileID: 2254349733851700077, guid: 32c084dd10e24a0995693988ea9bf2a5, type: 3}
    - {fileID: -3260541572077893329, guid: 32c084dd10e24a0995693988ea9bf2a5, type: 3}
    - {fileID: -3299202918059221898, guid: 32c084dd10e24a0995693988ea9bf2a5, type: 3}
  m_AnimationClipSettings:
    serializedVersion: 2
    m_AdditiveReferencePoseClip: {fileID: 0}
    m_AdditiveReferencePoseTime: 0
    m_StartTime: 0
    m_StopTime: 1.05
    m_OrientationOffsetY: 0
    m_Level: 0
    m_CycleOffset: 0
    m_HasAdditiveReferencePose: 0
    m_LoopTime: 1
    m_LoopBlend: 0
    m_LoopBlendOrientation: 0
    m_LoopBlendPositionY: 0
    m_LoopBlendPositionXZ: 0
    m_KeepOriginalOrientation: 0
    m_KeepOriginalPositionY: 1
    m_KeepOriginalPositionXZ: 0
    m_HeightFromFeet: 0
    m_Mirror: 0
  m_EditorCurves: []
  m_EulerEditorCurves: []
  m_HasGenericRootTransform: 0
  m_HasMotionFloatCurves: 0
  m_Events: []
