%YAML 1.1
%TAG !u! tag:unity3d.com,2011:
--- !u!74 &7400000
AnimationClip:
  m_ObjectHideFlags: 0
  m_CorrespondingSourceObject: {fileID: 0}
  m_PrefabInstance: {fileID: 0}
  m_PrefabAsset: {fileID: 0}
  m_Name: sycthe_down_cover
  serializedVersion: 6
  m_Legacy: 0
  m_Compressed: 0
  m_UseHighQualityCurve: 1
  m_RotationCurves: []
  m_CompressedRotationCurves: []
  m_EulerCurves: []
  m_PositionCurves: []
  m_ScaleCurves: []
  m_FloatCurves: []
  m_PPtrCurves:
  - curve:
    - time: 0
      value: {fileID: -3154006440609351274, guid: a9b169c76ec7456182240be5ebc12766, type: 3}
    - time: 0.05
      value: {fileID: -1708955784945331706, guid: a9b169c76ec7456182240be5ebc12766, type: 3}
    - time: 0.1
      value: {fileID: -8497573918291360940, guid: a9b169c76ec7456182240be5ebc12766, type: 3}
    - time: 0.15
      value: {fileID: -7468434231047857654, guid: a9b169c76ec7456182240be5ebc12766, type: 3}
    - time: 0.2
      value: {fileID: 6012116851901577316, guid: a9b169c76ec7456182240be5ebc12766, type: 3}
    - time: 0.25
      value: {fileID: 4409654134455766673, guid: a9b169c76ec7456182240be5ebc12766, type: 3}
    - time: 0.3
      value: {fileID: 3634881158538222612, guid: a9b169c76ec7456182240be5ebc12766, type: 3}
    - time: 0.35
      value: {fileID: -1645083647791985845, guid: a9b169c76ec7456182240be5ebc12766, type: 3}
    - time: 0.4
      value: {fileID: 6754628712499385605, guid: a9b169c76ec7456182240be5ebc12766, type: 3}
    - time: 0.45
      value: {fileID: -3309550138333827646, guid: a9b169c76ec7456182240be5ebc12766, type: 3}
    - time: 0.5
      value: {fileID: -5116515446305583260, guid: a9b169c76ec7456182240be5ebc12766, type: 3}
    - time: 0.55
      value: {fileID: -8261568864073792413, guid: a9b169c76ec7456182240be5ebc12766, type: 3}
    - time: 0.6
      value: {fileID: -1205222584684581542, guid: a9b169c76ec7456182240be5ebc12766, type: 3}
    - time: 0.65
      value: {fileID: -5751024857238886974, guid: a9b169c76ec7456182240be5ebc12766, type: 3}
    attribute: m_Sprite
    path: 
    classID: 212
    script: {fileID: 0}
  m_SampleRate: 20
  m_WrapMode: 0
  m_Bounds:
    m_Center: {x: 0, y: 0, z: 0}
    m_Extent: {x: 0, y: 0, z: 0}
  m_ClipBindingConstant:
    genericBindings:
    - serializedVersion: 2
      path: 0
      attribute: 0
      script: {fileID: 0}
      typeID: 212
      customType: 23
      isPPtrCurve: 1
    pptrCurveMapping:
    - {fileID: -3154006440609351274, guid: a9b169c76ec7456182240be5ebc12766, type: 3}
    - {fileID: -1708955784945331706, guid: a9b169c76ec7456182240be5ebc12766, type: 3}
    - {fileID: -8497573918291360940, guid: a9b169c76ec7456182240be5ebc12766, type: 3}
    - {fileID: -7468434231047857654, guid: a9b169c76ec7456182240be5ebc12766, type: 3}
    - {fileID: 6012116851901577316, guid: a9b169c76ec7456182240be5ebc12766, type: 3}
    - {fileID: 4409654134455766673, guid: a9b169c76ec7456182240be5ebc12766, type: 3}
    - {fileID: 3634881158538222612, guid: a9b169c76ec7456182240be5ebc12766, type: 3}
    - {fileID: -1645083647791985845, guid: a9b169c76ec7456182240be5ebc12766, type: 3}
    - {fileID: 6754628712499385605, guid: a9b169c76ec7456182240be5ebc12766, type: 3}
    - {fileID: -3309550138333827646, guid: a9b169c76ec7456182240be5ebc12766, type: 3}
    - {fileID: -5116515446305583260, guid: a9b169c76ec7456182240be5ebc12766, type: 3}
    - {fileID: -8261568864073792413, guid: a9b169c76ec7456182240be5ebc12766, type: 3}
    - {fileID: -1205222584684581542, guid: a9b169c76ec7456182240be5ebc12766, type: 3}
    - {fileID: -5751024857238886974, guid: a9b169c76ec7456182240be5ebc12766, type: 3}
  m_AnimationClipSettings:
    serializedVersion: 2
    m_AdditiveReferencePoseClip: {fileID: 0}
    m_AdditiveReferencePoseTime: 0
    m_StartTime: 0
    m_StopTime: 0.7
    m_OrientationOffsetY: 0
    m_Level: 0
    m_CycleOffset: 0
    m_HasAdditiveReferencePose: 0
    m_LoopTime: 1
    m_LoopBlend: 0
    m_LoopBlendOrientation: 0
    m_LoopBlendPositionY: 0
    m_LoopBlendPositionXZ: 0
    m_KeepOriginalOrientation: 0
    m_KeepOriginalPositionY: 1
    m_KeepOriginalPositionXZ: 0
    m_HeightFromFeet: 0
    m_Mirror: 0
  m_EditorCurves: []
  m_EulerEditorCurves: []
  m_HasGenericRootTransform: 0
  m_HasMotionFloatCurves: 0
  m_Events: []
