%YAML 1.1
%TAG !u! tag:unity3d.com,2011:
--- !u!74 &7400000
AnimationClip:
  m_ObjectHideFlags: 0
  m_CorrespondingSourceObject: {fileID: 0}
  m_PrefabInstance: {fileID: 0}
  m_PrefabAsset: {fileID: 0}
  m_Name: weapon_sycthe_down
  serializedVersion: 6
  m_Legacy: 0
  m_Compressed: 0
  m_UseHighQualityCurve: 1
  m_RotationCurves: []
  m_CompressedRotationCurves: []
  m_EulerCurves: []
  m_PositionCurves: []
  m_ScaleCurves: []
  m_FloatCurves: []
  m_PPtrCurves:
  - curve:
    - time: 0
      value: {fileID: 6745060519572138876, guid: 546ae45ca4014b42b9559c29bd77f8fb, type: 3}
    - time: 0.05
      value: {fileID: 900508438662086951, guid: 546ae45ca4014b42b9559c29bd77f8fb, type: 3}
    - time: 0.1
      value: {fileID: 8988884014453388158, guid: 546ae45ca4014b42b9559c29bd77f8fb, type: 3}
    - time: 0.15
      value: {fileID: 7202982966939657391, guid: 546ae45ca4014b42b9559c29bd77f8fb, type: 3}
    - time: 0.2
      value: {fileID: 2038944566991928539, guid: 546ae45ca4014b42b9559c29bd77f8fb, type: 3}
    - time: 0.25
      value: {fileID: -4922635318282854635, guid: 546ae45ca4014b42b9559c29bd77f8fb, type: 3}
    - time: 0.3
      value: {fileID: -4202114354011689938, guid: 546ae45ca4014b42b9559c29bd77f8fb, type: 3}
    - time: 0.35
      value: {fileID: -3346850880706413595, guid: 546ae45ca4014b42b9559c29bd77f8fb, type: 3}
    - time: 0.4
      value: {fileID: -8711462194814475163, guid: 546ae45ca4014b42b9559c29bd77f8fb, type: 3}
    - time: 0.45
      value: {fileID: -5951282790030272114, guid: 546ae45ca4014b42b9559c29bd77f8fb, type: 3}
    - time: 0.5
      value: {fileID: -8582932058158570037, guid: 546ae45ca4014b42b9559c29bd77f8fb, type: 3}
    - time: 0.55
      value: {fileID: 6947398329454530014, guid: 546ae45ca4014b42b9559c29bd77f8fb, type: 3}
    - time: 0.6
      value: {fileID: 4100782595488407050, guid: 546ae45ca4014b42b9559c29bd77f8fb, type: 3}
    - time: 0.65
      value: {fileID: 7496864446501981665, guid: 546ae45ca4014b42b9559c29bd77f8fb, type: 3}
    attribute: m_Sprite
    path: 
    classID: 212
    script: {fileID: 0}
  m_SampleRate: 20
  m_WrapMode: 0
  m_Bounds:
    m_Center: {x: 0, y: 0, z: 0}
    m_Extent: {x: 0, y: 0, z: 0}
  m_ClipBindingConstant:
    genericBindings:
    - serializedVersion: 2
      path: 0
      attribute: 0
      script: {fileID: 0}
      typeID: 212
      customType: 23
      isPPtrCurve: 1
    pptrCurveMapping:
    - {fileID: 6745060519572138876, guid: 546ae45ca4014b42b9559c29bd77f8fb, type: 3}
    - {fileID: 900508438662086951, guid: 546ae45ca4014b42b9559c29bd77f8fb, type: 3}
    - {fileID: 8988884014453388158, guid: 546ae45ca4014b42b9559c29bd77f8fb, type: 3}
    - {fileID: 7202982966939657391, guid: 546ae45ca4014b42b9559c29bd77f8fb, type: 3}
    - {fileID: 2038944566991928539, guid: 546ae45ca4014b42b9559c29bd77f8fb, type: 3}
    - {fileID: -4922635318282854635, guid: 546ae45ca4014b42b9559c29bd77f8fb, type: 3}
    - {fileID: -4202114354011689938, guid: 546ae45ca4014b42b9559c29bd77f8fb, type: 3}
    - {fileID: -3346850880706413595, guid: 546ae45ca4014b42b9559c29bd77f8fb, type: 3}
    - {fileID: -8711462194814475163, guid: 546ae45ca4014b42b9559c29bd77f8fb, type: 3}
    - {fileID: -5951282790030272114, guid: 546ae45ca4014b42b9559c29bd77f8fb, type: 3}
    - {fileID: -8582932058158570037, guid: 546ae45ca4014b42b9559c29bd77f8fb, type: 3}
    - {fileID: 6947398329454530014, guid: 546ae45ca4014b42b9559c29bd77f8fb, type: 3}
    - {fileID: 4100782595488407050, guid: 546ae45ca4014b42b9559c29bd77f8fb, type: 3}
    - {fileID: 7496864446501981665, guid: 546ae45ca4014b42b9559c29bd77f8fb, type: 3}
  m_AnimationClipSettings:
    serializedVersion: 2
    m_AdditiveReferencePoseClip: {fileID: 0}
    m_AdditiveReferencePoseTime: 0
    m_StartTime: 0
    m_StopTime: 0.7
    m_OrientationOffsetY: 0
    m_Level: 0
    m_CycleOffset: 0
    m_HasAdditiveReferencePose: 0
    m_LoopTime: 1
    m_LoopBlend: 0
    m_LoopBlendOrientation: 0
    m_LoopBlendPositionY: 0
    m_LoopBlendPositionXZ: 0
    m_KeepOriginalOrientation: 0
    m_KeepOriginalPositionY: 1
    m_KeepOriginalPositionXZ: 0
    m_HeightFromFeet: 0
    m_Mirror: 0
  m_EditorCurves: []
  m_EulerEditorCurves: []
  m_HasGenericRootTransform: 0
  m_HasMotionFloatCurves: 0
  m_Events: []
