%YAML 1.1
%TAG !u! tag:unity3d.com,2011:
--- !u!74 &7400000
AnimationClip:
  m_ObjectHideFlags: 0
  m_CorrespondingSourceObject: {fileID: 0}
  m_PrefabInstance: {fileID: 0}
  m_PrefabAsset: {fileID: 0}
  m_Name: weapon_bow_side
  serializedVersion: 6
  m_Legacy: 0
  m_Compressed: 0
  m_UseHighQualityCurve: 1
  m_RotationCurves: []
  m_CompressedRotationCurves: []
  m_EulerCurves: []
  m_PositionCurves: []
  m_ScaleCurves: []
  m_FloatCurves: []
  m_PPtrCurves:
  - curve:
    - time: 0
      value: {fileID: -415446080585258355, guid: 7712886a3acf4079b8d5fa70119f14d0, type: 3}
    - time: 0.05
      value: {fileID: 8952162787185664858, guid: 7712886a3acf4079b8d5fa70119f14d0, type: 3}
    - time: 0.1
      value: {fileID: -434252183827366392, guid: 7712886a3acf4079b8d5fa70119f14d0, type: 3}
    - time: 0.15
      value: {fileID: 1131549020000966294, guid: 7712886a3acf4079b8d5fa70119f14d0, type: 3}
    - time: 0.2
      value: {fileID: -7999427661029459236, guid: 7712886a3acf4079b8d5fa70119f14d0, type: 3}
    - time: 0.25
      value: {fileID: -4041009300170039426, guid: 7712886a3acf4079b8d5fa70119f14d0, type: 3}
    - time: 0.3
      value: {fileID: -6373757434741629751, guid: 7712886a3acf4079b8d5fa70119f14d0, type: 3}
    attribute: m_Sprite
    path: 
    classID: 212
    script: {fileID: 0}
  m_SampleRate: 20
  m_WrapMode: 0
  m_Bounds:
    m_Center: {x: 0, y: 0, z: 0}
    m_Extent: {x: 0, y: 0, z: 0}
  m_ClipBindingConstant:
    genericBindings:
    - serializedVersion: 2
      path: 0
      attribute: 0
      script: {fileID: 0}
      typeID: 212
      customType: 23
      isPPtrCurve: 1
    pptrCurveMapping:
    - {fileID: -415446080585258355, guid: 7712886a3acf4079b8d5fa70119f14d0, type: 3}
    - {fileID: 8952162787185664858, guid: 7712886a3acf4079b8d5fa70119f14d0, type: 3}
    - {fileID: -434252183827366392, guid: 7712886a3acf4079b8d5fa70119f14d0, type: 3}
    - {fileID: 1131549020000966294, guid: 7712886a3acf4079b8d5fa70119f14d0, type: 3}
    - {fileID: -7999427661029459236, guid: 7712886a3acf4079b8d5fa70119f14d0, type: 3}
    - {fileID: -4041009300170039426, guid: 7712886a3acf4079b8d5fa70119f14d0, type: 3}
    - {fileID: -6373757434741629751, guid: 7712886a3acf4079b8d5fa70119f14d0, type: 3}
  m_AnimationClipSettings:
    serializedVersion: 2
    m_AdditiveReferencePoseClip: {fileID: 0}
    m_AdditiveReferencePoseTime: 0
    m_StartTime: 0
    m_StopTime: 0.35000002
    m_OrientationOffsetY: 0
    m_Level: 0
    m_CycleOffset: 0
    m_HasAdditiveReferencePose: 0
    m_LoopTime: 1
    m_LoopBlend: 0
    m_LoopBlendOrientation: 0
    m_LoopBlendPositionY: 0
    m_LoopBlendPositionXZ: 0
    m_KeepOriginalOrientation: 0
    m_KeepOriginalPositionY: 1
    m_KeepOriginalPositionXZ: 0
    m_HeightFromFeet: 0
    m_Mirror: 0
  m_EditorCurves: []
  m_EulerEditorCurves: []
  m_HasGenericRootTransform: 0
  m_HasMotionFloatCurves: 0
  m_Events: []
