%YAML 1.1
%TAG !u! tag:unity3d.com,2011:
--- !u!74 &7400000
AnimationClip:
  m_ObjectHideFlags: 0
  m_CorrespondingSourceObject: {fileID: 0}
  m_PrefabInstance: {fileID: 0}
  m_PrefabAsset: {fileID: 0}
  m_Name: weapon_sword_down
  serializedVersion: 6
  m_Legacy: 0
  m_Compressed: 0
  m_UseHighQualityCurve: 1
  m_RotationCurves: []
  m_CompressedRotationCurves: []
  m_EulerCurves: []
  m_PositionCurves: []
  m_ScaleCurves: []
  m_FloatCurves: []
  m_PPtrCurves:
  - curve:
    - time: 0
      value: {fileID: -4519076053455810618, guid: 5e9fc7524e844987bb77387b092c8cf4, type: 3}
    - time: 0.05
      value: {fileID: 563748580988458004, guid: 5e9fc7524e844987bb77387b092c8cf4, type: 3}
    - time: 0.1
      value: {fileID: -8551796387700029265, guid: 5e9fc7524e844987bb77387b092c8cf4, type: 3}
    - time: 0.15
      value: {fileID: -6580160932500289361, guid: 5e9fc7524e844987bb77387b092c8cf4, type: 3}
    - time: 0.2
      value: {fileID: -6469916797677484604, guid: 5e9fc7524e844987bb77387b092c8cf4, type: 3}
    - time: 0.25
      value: {fileID: -106492298241405289, guid: 5e9fc7524e844987bb77387b092c8cf4, type: 3}
    - time: 0.3
      value: {fileID: 5368310613557176870, guid: 5e9fc7524e844987bb77387b092c8cf4, type: 3}
    - time: 0.35
      value: {fileID: 4133054002345373002, guid: 5e9fc7524e844987bb77387b092c8cf4, type: 3}
    - time: 0.4
      value: {fileID: 486422696980654493, guid: 5e9fc7524e844987bb77387b092c8cf4, type: 3}
    - time: 0.45
      value: {fileID: -5238232506152905777, guid: 5e9fc7524e844987bb77387b092c8cf4, type: 3}
    - time: 0.5
      value: {fileID: -2408560815710786100, guid: 5e9fc7524e844987bb77387b092c8cf4, type: 3}
    - time: 0.55
      value: {fileID: 8960651169117535451, guid: 5e9fc7524e844987bb77387b092c8cf4, type: 3}
    attribute: m_Sprite
    path: 
    classID: 212
    script: {fileID: 0}
  m_SampleRate: 20
  m_WrapMode: 0
  m_Bounds:
    m_Center: {x: 0, y: 0, z: 0}
    m_Extent: {x: 0, y: 0, z: 0}
  m_ClipBindingConstant:
    genericBindings:
    - serializedVersion: 2
      path: 0
      attribute: 0
      script: {fileID: 0}
      typeID: 212
      customType: 23
      isPPtrCurve: 1
    pptrCurveMapping:
    - {fileID: -4519076053455810618, guid: 5e9fc7524e844987bb77387b092c8cf4, type: 3}
    - {fileID: 563748580988458004, guid: 5e9fc7524e844987bb77387b092c8cf4, type: 3}
    - {fileID: -8551796387700029265, guid: 5e9fc7524e844987bb77387b092c8cf4, type: 3}
    - {fileID: -6580160932500289361, guid: 5e9fc7524e844987bb77387b092c8cf4, type: 3}
    - {fileID: -6469916797677484604, guid: 5e9fc7524e844987bb77387b092c8cf4, type: 3}
    - {fileID: -106492298241405289, guid: 5e9fc7524e844987bb77387b092c8cf4, type: 3}
    - {fileID: 5368310613557176870, guid: 5e9fc7524e844987bb77387b092c8cf4, type: 3}
    - {fileID: 4133054002345373002, guid: 5e9fc7524e844987bb77387b092c8cf4, type: 3}
    - {fileID: 486422696980654493, guid: 5e9fc7524e844987bb77387b092c8cf4, type: 3}
    - {fileID: -5238232506152905777, guid: 5e9fc7524e844987bb77387b092c8cf4, type: 3}
    - {fileID: -2408560815710786100, guid: 5e9fc7524e844987bb77387b092c8cf4, type: 3}
    - {fileID: 8960651169117535451, guid: 5e9fc7524e844987bb77387b092c8cf4, type: 3}
  m_AnimationClipSettings:
    serializedVersion: 2
    m_AdditiveReferencePoseClip: {fileID: 0}
    m_AdditiveReferencePoseTime: 0
    m_StartTime: 0
    m_StopTime: 0.6
    m_OrientationOffsetY: 0
    m_Level: 0
    m_CycleOffset: 0
    m_HasAdditiveReferencePose: 0
    m_LoopTime: 1
    m_LoopBlend: 0
    m_LoopBlendOrientation: 0
    m_LoopBlendPositionY: 0
    m_LoopBlendPositionXZ: 0
    m_KeepOriginalOrientation: 0
    m_KeepOriginalPositionY: 1
    m_KeepOriginalPositionXZ: 0
    m_HeightFromFeet: 0
    m_Mirror: 0
  m_EditorCurves: []
  m_EulerEditorCurves: []
  m_HasGenericRootTransform: 0
  m_HasMotionFloatCurves: 0
  m_Events: []
