%YAML 1.1
%TAG !u! tag:unity3d.com,2011:
--- !u!162 &1
EditorUserSettings:
  m_ObjectHideFlags: 0
  serializedVersion: 4
  m_ConfigSettings:
    RecentlyUsedSceneGuid-0:
      value: 0509010756065d58540c5570427a0b44404e4e727a2970357e7c4a36b6b1376b
      flags: 0
    RecentlyUsedSceneGuid-1:
      value: 5705025f570c0b0b585f5c21167459444f151e7b78797f34797b4b37b6e66539
      flags: 0
    RecentlyUsedSceneGuid-2:
      value: 5a07035301050f0e09590d7344200c4441151d7d292d7031282d4f62e6b46160
      flags: 0
    RecentlyUsedSceneGuid-3:
      value: 0509500750530f0e0c5f0f7014770c1443154a2c7e7973332e7a4962e7b5363b
      flags: 0
    RecentlyUsedSceneGuid-4:
      value: 00080d50510059090c0d0d2445200744424f1c737a2c716129794e30e3e1663b
      flags: 0
    RecentlyUsedSceneGuid-5:
      value: 50060c50570c0b590f5e542341760c44154f1c7e7a7c22637d7f4931b0e56c3c
      flags: 0
    RecentlyUsedSceneGuid-6:
      value: 510151055354580358570a7a49770e44464f497374782763292a4b36b3e1363b
      flags: 0
    RecentlyUsedSceneGuid-7:
      value: 575556555504500908570f75137a5b4413161d7e7c2e2232782f4b37bab86760
      flags: 0
    RecentlyUsedSceneGuid-8:
      value: 5650525555025c5e5f0b5427157709444016482f7e2970627e2f4a6be6e46239
      flags: 0
    RecentlyUsedSceneGuid-9:
      value: 5a050107560c5f0e0c5f087011750f44124e4d7b7d71726928284b35e0b16c3c
      flags: 0
    vcSharedLogLevel:
      value: 0d5e400f0650
      flags: 0
  m_VCAutomaticAdd: 1
  m_VCDebugCom: 0
  m_VCDebugCmd: 0
  m_VCDebugOut: 0
  m_SemanticMergeMode: 2
  m_DesiredImportWorkerCount: 4
  m_StandbyImportWorkerCount: 2
  m_IdleImportWorkerShutdownDelay: 60000
  m_VCShowFailedCheckout: 1
  m_VCOverwriteFailedCheckoutAssets: 1
  m_VCProjectOverlayIcons: 1
  m_VCHierarchyOverlayIcons: 1
  m_VCOtherOverlayIcons: 1
  m_VCAllowAsyncUpdate: 1
  m_ArtifactGarbageCollection: 1
