%YAML 1.1
%TAG !u! tag:unity3d.com,2011:
--- !u!1045 &1
EditorBuildSettings:
  m_ObjectHideFlags: 0
  serializedVersion: 2
  m_Scenes:
  - enabled: 1
    path: Assets/Scenes/MainScenes/Menus/StartSceen.unity
    guid: 4db30192e9c7c9d4eae40fdb5f6d8838
  - enabled: 1
    path: Assets/InfiniteRunnerEngine/ThirdParty/MoreMountains/MMTools/Tools/MMSceneLoading/LoadingScreens/LoadingScreen.unity
    guid: 888394d52616e5e42b3b54c3f2bbd3eb
  - enabled: 1
    path: Assets/Scenes/MainScenes/GameScene/Infinite_01.unity
    guid: 5af3075e2e8ee4646a0e2a623f78dd6a
  m_configObjects: {}
