%YAML 1.1
%TAG !u! tag:unity3d.com,2011:
--- !u!47 &1
QualitySettings:
  m_ObjectHideFlags: 0
  serializedVersion: 5
  m_CurrentQuality: 5
  m_QualitySettings:
  - serializedVersion: 3
    name: Fastest
    pixelLightCount: 0
    shadows: 0
    shadowResolution: 0
    shadowProjection: 1
    shadowCascades: 1
    shadowDistance: 15
    shadowNearPlaneOffset: 2
    shadowCascade2Split: 0.33333334
    shadowCascade4Split: {x: 0.06666667, y: 0.2, z: 0.46666667}
    shadowmaskMode: 0
    skinWeights: 1
    globalTextureMipmapLimit: 1
    textureMipmapLimitSettings: []
    anisotropicTextures: 0
    antiAliasing: 0
    softParticles: 0
    softVegetation: 0
    realtimeReflectionProbes: 0
    billboardsFaceCameraPosition: 0
    useLegacyDetailDistribution: 1
    vSyncCount: 0
    lodBias: 0.3
    maximumLODLevel: 0
    enableLODCrossFade: 1
    streamingMipmapsActive: 0
    streamingMipmapsAddAllCameras: 1
    streamingMipmapsMemoryBudget: 512
    streamingMipmapsRenderersPerFrame: 512
    streamingMipmapsMaxLevelReduction: 2
    streamingMipmapsMaxFileIORequests: 1024
    particleRaycastBudget: 4
    asyncUploadTimeSlice: 2
    asyncUploadBufferSize: 4
    asyncUploadPersistentBuffer: 1
    resolutionScalingFixedDPIFactor: 1
    customRenderPipeline: {fileID: 0}
    terrainQualityOverrides: 0
    terrainPixelError: 1
    terrainDetailDensityScale: 1
    terrainBasemapDistance: 1000
    terrainDetailDistance: 80
    terrainTreeDistance: 5000
    terrainBillboardStart: 50
    terrainFadeLength: 5
    terrainMaxTrees: 50
    excludedTargetPlatforms: []
  - serializedVersion: 3
    name: Fast
    pixelLightCount: 0
    shadows: 0
    shadowResolution: 0
    shadowProjection: 1
    shadowCascades: 1
    shadowDistance: 20
    shadowNearPlaneOffset: 2
    shadowCascade2Split: 0.33333334
    shadowCascade4Split: {x: 0.06666667, y: 0.2, z: 0.46666667}
    shadowmaskMode: 0
    skinWeights: 2
    globalTextureMipmapLimit: 0
    textureMipmapLimitSettings: []
    anisotropicTextures: 0
    antiAliasing: 0
    softParticles: 0
    softVegetation: 0
    realtimeReflectionProbes: 0
    billboardsFaceCameraPosition: 0
    useLegacyDetailDistribution: 1
    vSyncCount: 0
    lodBias: 0.4
    maximumLODLevel: 0
    enableLODCrossFade: 1
    streamingMipmapsActive: 0
    streamingMipmapsAddAllCameras: 1
    streamingMipmapsMemoryBudget: 512
    streamingMipmapsRenderersPerFrame: 512
    streamingMipmapsMaxLevelReduction: 2
    streamingMipmapsMaxFileIORequests: 1024
    particleRaycastBudget: 16
    asyncUploadTimeSlice: 2
    asyncUploadBufferSize: 4
    asyncUploadPersistentBuffer: 1
    resolutionScalingFixedDPIFactor: 1
    customRenderPipeline: {fileID: 0}
    terrainQualityOverrides: 0
    terrainPixelError: 1
    terrainDetailDensityScale: 1
    terrainBasemapDistance: 1000
    terrainDetailDistance: 80
    terrainTreeDistance: 5000
    terrainBillboardStart: 50
    terrainFadeLength: 5
    terrainMaxTrees: 50
    excludedTargetPlatforms: []
  - serializedVersion: 3
    name: Simple
    pixelLightCount: 1
    shadows: 1
    shadowResolution: 0
    shadowProjection: 1
    shadowCascades: 1
    shadowDistance: 20
    shadowNearPlaneOffset: 2
    shadowCascade2Split: 0.33333334
    shadowCascade4Split: {x: 0.06666667, y: 0.2, z: 0.46666667}
    shadowmaskMode: 0
    skinWeights: 2
    globalTextureMipmapLimit: 0
    textureMipmapLimitSettings: []
    anisotropicTextures: 1
    antiAliasing: 0
    softParticles: 0
    softVegetation: 0
    realtimeReflectionProbes: 0
    billboardsFaceCameraPosition: 0
    useLegacyDetailDistribution: 1
    vSyncCount: 0
    lodBias: 0.7
    maximumLODLevel: 0
    enableLODCrossFade: 1
    streamingMipmapsActive: 0
    streamingMipmapsAddAllCameras: 1
    streamingMipmapsMemoryBudget: 512
    streamingMipmapsRenderersPerFrame: 512
    streamingMipmapsMaxLevelReduction: 2
    streamingMipmapsMaxFileIORequests: 1024
    particleRaycastBudget: 64
    asyncUploadTimeSlice: 2
    asyncUploadBufferSize: 4
    asyncUploadPersistentBuffer: 1
    resolutionScalingFixedDPIFactor: 1
    customRenderPipeline: {fileID: 0}
    terrainQualityOverrides: 0
    terrainPixelError: 1
    terrainDetailDensityScale: 1
    terrainBasemapDistance: 1000
    terrainDetailDistance: 80
    terrainTreeDistance: 5000
    terrainBillboardStart: 50
    terrainFadeLength: 5
    terrainMaxTrees: 50
    excludedTargetPlatforms: []
  - serializedVersion: 3
    name: Good
    pixelLightCount: 2
    shadows: 2
    shadowResolution: 1
    shadowProjection: 1
    shadowCascades: 2
    shadowDistance: 40
    shadowNearPlaneOffset: 2
    shadowCascade2Split: 0.33333334
    shadowCascade4Split: {x: 0.06666667, y: 0.2, z: 0.46666667}
    shadowmaskMode: 1
    skinWeights: 2
    globalTextureMipmapLimit: 0
    textureMipmapLimitSettings: []
    anisotropicTextures: 1
    antiAliasing: 0
    softParticles: 0
    softVegetation: 1
    realtimeReflectionProbes: 1
    billboardsFaceCameraPosition: 1
    useLegacyDetailDistribution: 1
    vSyncCount: 1
    lodBias: 1
    maximumLODLevel: 0
    enableLODCrossFade: 1
    streamingMipmapsActive: 0
    streamingMipmapsAddAllCameras: 1
    streamingMipmapsMemoryBudget: 512
    streamingMipmapsRenderersPerFrame: 512
    streamingMipmapsMaxLevelReduction: 2
    streamingMipmapsMaxFileIORequests: 1024
    particleRaycastBudget: 256
    asyncUploadTimeSlice: 2
    asyncUploadBufferSize: 4
    asyncUploadPersistentBuffer: 1
    resolutionScalingFixedDPIFactor: 1
    customRenderPipeline: {fileID: 0}
    terrainQualityOverrides: 0
    terrainPixelError: 1
    terrainDetailDensityScale: 1
    terrainBasemapDistance: 1000
    terrainDetailDistance: 80
    terrainTreeDistance: 5000
    terrainBillboardStart: 50
    terrainFadeLength: 5
    terrainMaxTrees: 50
    excludedTargetPlatforms: []
  - serializedVersion: 3
    name: Beautiful
    pixelLightCount: 3
    shadows: 2
    shadowResolution: 2
    shadowProjection: 1
    shadowCascades: 2
    shadowDistance: 70
    shadowNearPlaneOffset: 2
    shadowCascade2Split: 0.33333334
    shadowCascade4Split: {x: 0.06666667, y: 0.2, z: 0.46666667}
    shadowmaskMode: 1
    skinWeights: 4
    globalTextureMipmapLimit: 0
    textureMipmapLimitSettings: []
    anisotropicTextures: 2
    antiAliasing: 2
    softParticles: 1
    softVegetation: 1
    realtimeReflectionProbes: 1
    billboardsFaceCameraPosition: 1
    useLegacyDetailDistribution: 1
    vSyncCount: 1
    lodBias: 1.5
    maximumLODLevel: 0
    enableLODCrossFade: 1
    streamingMipmapsActive: 0
    streamingMipmapsAddAllCameras: 1
    streamingMipmapsMemoryBudget: 512
    streamingMipmapsRenderersPerFrame: 512
    streamingMipmapsMaxLevelReduction: 2
    streamingMipmapsMaxFileIORequests: 1024
    particleRaycastBudget: 1024
    asyncUploadTimeSlice: 2
    asyncUploadBufferSize: 4
    asyncUploadPersistentBuffer: 1
    resolutionScalingFixedDPIFactor: 1
    customRenderPipeline: {fileID: 0}
    terrainQualityOverrides: 0
    terrainPixelError: 1
    terrainDetailDensityScale: 1
    terrainBasemapDistance: 1000
    terrainDetailDistance: 80
    terrainTreeDistance: 5000
    terrainBillboardStart: 50
    terrainFadeLength: 5
    terrainMaxTrees: 50
    excludedTargetPlatforms: []
  - serializedVersion: 3
    name: Fantastic
    pixelLightCount: 4
    shadows: 2
    shadowResolution: 2
    shadowProjection: 1
    shadowCascades: 1
    shadowDistance: 150
    shadowNearPlaneOffset: 2
    shadowCascade2Split: 0.33333334
    shadowCascade4Split: {x: 0.06666667, y: 0.19999999, z: 0.46666664}
    shadowmaskMode: 1
    skinWeights: 4
    globalTextureMipmapLimit: 0
    textureMipmapLimitSettings: []
    anisotropicTextures: 2
    antiAliasing: 2
    softParticles: 1
    softVegetation: 1
    realtimeReflectionProbes: 1
    billboardsFaceCameraPosition: 1
    useLegacyDetailDistribution: 1
    vSyncCount: 1
    lodBias: 2
    maximumLODLevel: 0
    enableLODCrossFade: 1
    streamingMipmapsActive: 0
    streamingMipmapsAddAllCameras: 1
    streamingMipmapsMemoryBudget: 512
    streamingMipmapsRenderersPerFrame: 512
    streamingMipmapsMaxLevelReduction: 2
    streamingMipmapsMaxFileIORequests: 1024
    particleRaycastBudget: 4096
    asyncUploadTimeSlice: 2
    asyncUploadBufferSize: 4
    asyncUploadPersistentBuffer: 1
    resolutionScalingFixedDPIFactor: 1
    customRenderPipeline: {fileID: 0}
    terrainQualityOverrides: 0
    terrainPixelError: 1
    terrainDetailDensityScale: 1
    terrainBasemapDistance: 1000
    terrainDetailDistance: 80
    terrainTreeDistance: 5000
    terrainBillboardStart: 50
    terrainFadeLength: 5
    terrainMaxTrees: 50
    excludedTargetPlatforms: []
  m_TextureMipmapLimitGroupNames: []
  m_PerPlatformDefaultQuality:
    Android: 5
    Server: 0
    Standalone: 5
    Web: 0
    WebGL: 5
    Windows Store Apps: 0
    iPhone: 5
